<?xml version="1.0" encoding="utf-8"  standalone="no"?>
<!DOCTYPE svg PUBLIC "-//W3C//DTD SVG 1.1//EN"
 "http://www.w3.org/Graphics/SVG/1.1/DTD/svg11.dtd">
<svg 
 width="640" height="400"
 viewBox="0 0 640 400"
 xmlns="http://www.w3.org/2000/svg"
 xmlns:xlink="http://www.w3.org/1999/xlink"
>

<title>Gnuplot</title>
<desc>Produced by GNUPLOT 5.0 patchlevel 0 </desc>

<g id="gnuplot_canvas">

<rect x="0" y="0" width="640" height="400" fill="none"/>
<defs>

	<circle id='gpDot' r='0.5' stroke-width='0.5'/>
	<path id='gpPt0' stroke-width='0.244' stroke='currentColor' d='M-1,0 h2 M0,-1 v2'/>
	<path id='gpPt1' stroke-width='0.244' stroke='currentColor' d='M-1,-1 L1,1 M1,-1 L-1,1'/>
	<path id='gpPt2' stroke-width='0.244' stroke='currentColor' d='M-1,0 L1,0 M0,-1 L0,1 M-1,-1 L1,1 M-1,1 L1,-1'/>
	<rect id='gpPt3' stroke-width='0.244' stroke='currentColor' x='-1' y='-1' width='2' height='2'/>
	<rect id='gpPt4' stroke-width='0.244' stroke='currentColor' fill='currentColor' x='-1' y='-1' width='2' height='2'/>
	<circle id='gpPt5' stroke-width='0.244' stroke='currentColor' cx='0' cy='0' r='1'/>
	<use xlink:href='#gpPt5' id='gpPt6' fill='currentColor' stroke='none'/>
	<path id='gpPt7' stroke-width='0.244' stroke='currentColor' d='M0,-1.33 L-1.33,0.67 L1.33,0.67 z'/>
	<use xlink:href='#gpPt7' id='gpPt8' fill='currentColor' stroke='none'/>
	<use xlink:href='#gpPt7' id='gpPt9' stroke='currentColor' transform='rotate(180)'/>
	<use xlink:href='#gpPt9' id='gpPt10' fill='currentColor' stroke='none'/>
	<use xlink:href='#gpPt3' id='gpPt11' stroke='currentColor' transform='rotate(45)'/>
	<use xlink:href='#gpPt11' id='gpPt12' fill='currentColor' stroke='none'/>
	<path id='gpPt13' stroke-width='0.244' stroke='currentColor' d='M0,1.330 L1.265,0.411 L0.782,-1.067 L-0.782,-1.076 L-1.265,0.411 z'/>
	<use xlink:href='#gpPt13' id='gpPt14' fill='currentColor' stroke='none'/>
	<filter id='textbox' filterUnits='objectBoundingBox' x='0' y='0' height='1' width='1'>
	  <feFlood flood-color='white' flood-opacity='1' result='bgnd'/>
	  <feComposite in='SourceGraphic' in2='bgnd' operator='atop'/>
	</filter>
	<filter id='greybox' filterUnits='objectBoundingBox' x='0' y='0' height='1' width='1'>
	  <feFlood flood-color='lightgrey' flood-opacity='1' result='grey'/>
	  <feComposite in='SourceGraphic' in2='grey' operator='atop'/>
	</filter>
</defs>
<g fill="none" color="white" stroke="currentColor" stroke-width="1.00" stroke-linecap="butt" stroke-linejoin="miter">
</g>
<g fill="none" color="black" stroke="currentColor" stroke-width="1.00" stroke-linecap="butt" stroke-linejoin="miter">
	<path stroke='black'  d='M58.7,347.6 L66.9,347.6 M296.8,347.6 L288.6,347.6  '/>	<g transform="translate(51.0,351.7)" stroke="none" fill="black" font-family="Verdana" font-size="11.00"  text-anchor="end">
		<text><tspan font-family="Verdana" > 1</tspan></text>
	</g>
</g>
<g fill="none" color="black" stroke="currentColor" stroke-width="1.00" stroke-linecap="butt" stroke-linejoin="miter">
	<path stroke='black'  d='M58.7,334.6 L66.9,334.6 M296.8,334.6 L288.6,334.6  '/>	<g transform="translate(51.0,338.7)" stroke="none" fill="black" font-family="Verdana" font-size="11.00"  text-anchor="end">
		<text><tspan font-family="Verdana" > 2</tspan></text>
	</g>
</g>
<g fill="none" color="black" stroke="currentColor" stroke-width="1.00" stroke-linecap="butt" stroke-linejoin="miter">
	<path stroke='black'  d='M58.7,308.7 L66.9,308.7 M296.8,308.7 L288.6,308.7  '/>	<g transform="translate(51.0,312.8)" stroke="none" fill="black" font-family="Verdana" font-size="11.00"  text-anchor="end">
		<text><tspan font-family="Verdana" > 4</tspan></text>
	</g>
</g>
<g fill="none" color="black" stroke="currentColor" stroke-width="1.00" stroke-linecap="butt" stroke-linejoin="miter">
	<path stroke='black'  d='M58.7,256.8 L66.9,256.8 M296.8,256.8 L288.6,256.8  '/>	<g transform="translate(51.0,260.9)" stroke="none" fill="black" font-family="Verdana" font-size="11.00"  text-anchor="end">
		<text><tspan font-family="Verdana" > 8</tspan></text>
	</g>
</g>
<g fill="none" color="black" stroke="currentColor" stroke-width="1.00" stroke-linecap="butt" stroke-linejoin="miter">
	<path stroke='black'  d='M58.7,204.9 L66.9,204.9 M296.8,204.9 L288.6,204.9  '/>	<g transform="translate(51.0,209.0)" stroke="none" fill="black" font-family="Verdana" font-size="11.00"  text-anchor="end">
		<text><tspan font-family="Verdana" > 12</tspan></text>
	</g>
</g>
<g fill="none" color="black" stroke="currentColor" stroke-width="1.00" stroke-linecap="butt" stroke-linejoin="miter">
	<path stroke='black'  d='M58.7,127.1 L66.9,127.1 M296.8,127.1 L288.6,127.1  '/>	<g transform="translate(51.0,131.2)" stroke="none" fill="black" font-family="Verdana" font-size="11.00"  text-anchor="end">
		<text><tspan font-family="Verdana" > 18</tspan></text>
	</g>
</g>
<g fill="none" color="black" stroke="currentColor" stroke-width="1.00" stroke-linecap="butt" stroke-linejoin="miter">
	<path stroke='black'  d='M58.7,49.3 L66.9,49.3 M296.8,49.3 L288.6,49.3  '/>	<g transform="translate(51.0,53.4)" stroke="none" fill="black" font-family="Verdana" font-size="11.00"  text-anchor="end">
		<text><tspan font-family="Verdana" > 24</tspan></text>
	</g>
</g>
<g fill="none" color="black" stroke="currentColor" stroke-width="1.00" stroke-linecap="butt" stroke-linejoin="miter">
	<path stroke='black'  d='M58.7,347.6 L58.7,339.4 M58.7,49.3 L58.7,57.5  '/>	<g transform="translate(58.7,368.1)" stroke="none" fill="black" font-family="Verdana" font-size="11.00"  text-anchor="middle">
		<text><tspan font-family="Verdana" > 1</tspan></text>
	</g>
</g>
<g fill="none" color="black" stroke="currentColor" stroke-width="1.00" stroke-linecap="butt" stroke-linejoin="miter">
	<path stroke='black'  d='M69.1,347.6 L69.1,339.4 M69.1,49.3 L69.1,57.5  '/>	<g transform="translate(69.1,368.1)" stroke="none" fill="black" font-family="Verdana" font-size="11.00"  text-anchor="middle">
		<text><tspan font-family="Verdana" > 2</tspan></text>
	</g>
</g>
<g fill="none" color="black" stroke="currentColor" stroke-width="1.00" stroke-linecap="butt" stroke-linejoin="miter">
	<path stroke='black'  d='M89.8,347.6 L89.8,339.4 M89.8,49.3 L89.8,57.5  '/>	<g transform="translate(89.8,368.1)" stroke="none" fill="black" font-family="Verdana" font-size="11.00"  text-anchor="middle">
		<text><tspan font-family="Verdana" > 4</tspan></text>
	</g>
</g>
<g fill="none" color="black" stroke="currentColor" stroke-width="1.00" stroke-linecap="butt" stroke-linejoin="miter">
	<path stroke='black'  d='M131.2,347.6 L131.2,339.4 M131.2,49.3 L131.2,57.5  '/>	<g transform="translate(131.2,368.1)" stroke="none" fill="black" font-family="Verdana" font-size="11.00"  text-anchor="middle">
		<text><tspan font-family="Verdana" > 8</tspan></text>
	</g>
</g>
<g fill="none" color="black" stroke="currentColor" stroke-width="1.00" stroke-linecap="butt" stroke-linejoin="miter">
	<path stroke='black'  d='M172.6,347.6 L172.6,339.4 M172.6,49.3 L172.6,57.5  '/>	<g transform="translate(172.6,368.1)" stroke="none" fill="black" font-family="Verdana" font-size="11.00"  text-anchor="middle">
		<text><tspan font-family="Verdana" > 12</tspan></text>
	</g>
</g>
<g fill="none" color="black" stroke="currentColor" stroke-width="1.00" stroke-linecap="butt" stroke-linejoin="miter">
	<path stroke='black'  d='M234.7,347.6 L234.7,339.4 M234.7,49.3 L234.7,57.5  '/>	<g transform="translate(234.7,368.1)" stroke="none" fill="black" font-family="Verdana" font-size="11.00"  text-anchor="middle">
		<text><tspan font-family="Verdana" > 18</tspan></text>
	</g>
</g>
<g fill="none" color="black" stroke="currentColor" stroke-width="1.00" stroke-linecap="butt" stroke-linejoin="miter">
	<path stroke='black'  d='M296.8,347.6 L296.8,339.4 M296.8,49.3 L296.8,57.5  '/>	<g transform="translate(296.8,368.1)" stroke="none" fill="black" font-family="Verdana" font-size="11.00"  text-anchor="middle">
		<text><tspan font-family="Verdana" > 24</tspan></text>
	</g>
</g>
<g fill="none" color="black" stroke="currentColor" stroke-width="1.00" stroke-linecap="butt" stroke-linejoin="miter">
</g>
<g fill="none" color="black" stroke="currentColor" stroke-width="1.00" stroke-linecap="butt" stroke-linejoin="miter">
	<path stroke='black'  d='M58.7,49.3 L58.7,347.6 L296.8,347.6 L296.8,49.3 L58.7,49.3 Z  '/></g>
<g fill="none" color="black" stroke="currentColor" stroke-width="1.00" stroke-linecap="butt" stroke-linejoin="miter">
	<g transform="translate(16.1,198.5) rotate(270)" stroke="none" fill="black" font-family="Verdana" font-size="11.00"  text-anchor="middle">
		<text><tspan font-family="Verdana" >Speedup</tspan></text>
	</g>
</g>
<g fill="none" color="black" stroke="currentColor" stroke-width="1.00" stroke-linecap="butt" stroke-linejoin="miter">
	<g transform="translate(177.7,392.7)" stroke="none" fill="black" font-family="Verdana" font-size="11.00"  text-anchor="middle">
		<text><tspan font-family="Verdana" >Number of GPUs</tspan></text>
	</g>
</g>
<g fill="none" color="black" stroke="currentColor" stroke-width="1.00" stroke-linecap="butt" stroke-linejoin="miter">
	<g transform="translate(177.7,28.8)" stroke="none" fill="black" font-family="Verdana" font-size="11.00"  text-anchor="middle">
		<text><tspan font-family="Verdana" >Strong scaling (N=1200, replicas=72)</tspan></text>
	</g>
</g>
	<g id="gnuplot_plot_1a" ><title>gnuplot_plot_1a</title>
<g fill="none" color="white" stroke="black" stroke-width="2.00" stroke-linecap="butt" stroke-linejoin="miter">
</g>
<g fill="none" color="black" stroke="currentColor" stroke-width="2.00" stroke-linecap="butt" stroke-linejoin="miter">
	<use xlink:href='#gpPt6' transform='translate(58.7,347.6) scale(4.10)' color='rgb(  0,  96, 173)'/>
	<use xlink:href='#gpPt6' transform='translate(69.1,334.8) scale(4.10)' color='rgb(  0,  96, 173)'/>
	<use xlink:href='#gpPt6' transform='translate(89.8,309.1) scale(4.10)' color='rgb(  0,  96, 173)'/>
	<use xlink:href='#gpPt6' transform='translate(131.2,257.7) scale(4.10)' color='rgb(  0,  96, 173)'/>
	<use xlink:href='#gpPt6' transform='translate(172.6,206.1) scale(4.10)' color='rgb(  0,  96, 173)'/>
	<use xlink:href='#gpPt6' transform='translate(234.7,128.5) scale(4.10)' color='rgb(  0,  96, 173)'/>
	<use xlink:href='#gpPt6' transform='translate(296.8,51.0) scale(4.10)' color='rgb(  0,  96, 173)'/>
</g>
	</g>
	<g id="gnuplot_plot_2a" ><title>gnuplot_plot_2a</title>
<g fill="none" color="white" stroke="rgb(  0,  96, 173)" stroke-width="1.00" stroke-linecap="butt" stroke-linejoin="miter">
</g>
<g fill="none" color="black" stroke="currentColor" stroke-width="1.00" stroke-linecap="butt" stroke-linejoin="miter">
	<path stroke='gray' stroke-dasharray='5.0,5.0'  d='M58.7,347.6 L61.1,344.6 L63.5,341.6 L65.9,338.6 L68.3,335.5 L70.7,332.5 L73.1,329.5 L75.5,326.5
		L77.9,323.5 L80.3,320.5 L82.8,317.5 L85.2,314.5 L87.6,311.4 L90.0,308.4 L92.4,305.4 L94.8,302.4
		L97.2,299.4 L99.6,296.4 L102.0,293.4 L104.4,290.4 L106.8,287.3 L109.2,284.3 L111.6,281.3 L114.0,278.3
		L116.4,275.3 L118.8,272.3 L121.2,269.3 L123.6,266.2 L126.0,263.2 L128.4,260.2 L130.9,257.2 L133.3,254.2
		L135.7,251.2 L138.1,248.2 L140.5,245.2 L142.9,242.1 L145.3,239.1 L147.7,236.1 L150.1,233.1 L152.5,230.1
		L154.9,227.1 L157.3,224.1 L159.7,221.0 L162.1,218.0 L164.5,215.0 L166.9,212.0 L169.3,209.0 L171.7,206.0
		L174.1,203.0 L176.5,200.0 L179.0,196.9 L181.4,193.9 L183.8,190.9 L186.2,187.9 L188.6,184.9 L191.0,181.9
		L193.4,178.9 L195.8,175.9 L198.2,172.8 L200.6,169.8 L203.0,166.8 L205.4,163.8 L207.8,160.8 L210.2,157.8
		L212.6,154.8 L215.0,151.7 L217.4,148.7 L219.8,145.7 L222.2,142.7 L224.6,139.7 L227.1,136.7 L229.5,133.7
		L231.9,130.7 L234.3,127.6 L236.7,124.6 L239.1,121.6 L241.5,118.6 L243.9,115.6 L246.3,112.6 L248.7,109.6
		L251.1,106.5 L253.5,103.5 L255.9,100.5 L258.3,97.5 L260.7,94.5 L263.1,91.5 L265.5,88.5 L267.9,85.5
		L270.3,82.4 L272.7,79.4 L275.2,76.4 L277.6,73.4 L280.0,70.4 L282.4,67.4 L284.8,64.4 L287.2,61.4
		L289.6,58.3 L292.0,55.3 L294.4,52.3 L296.8,49.3  '/></g>
	</g>
<g fill="none" color="white" stroke="gray" stroke-width="2.00" stroke-linecap="butt" stroke-linejoin="miter">
</g>
<g fill="none" color="black" stroke="currentColor" stroke-width="2.00" stroke-linecap="butt" stroke-linejoin="miter">
</g>
<g fill="none" color="black" stroke="black" stroke-width="1.00" stroke-linecap="butt" stroke-linejoin="miter">
</g>
<g fill="none" color="black" stroke="currentColor" stroke-width="1.00" stroke-linecap="butt" stroke-linejoin="miter">
	<path stroke='black'  d='M58.7,49.3 L58.7,347.6 L296.8,347.6 L296.8,49.3 L58.7,49.3 Z  '/></g>
<g fill="none" color="black" stroke="currentColor" stroke-width="1.00" stroke-linecap="butt" stroke-linejoin="miter">
</g>
<g fill="none" color="black" stroke="currentColor" stroke-width="1.00" stroke-linecap="butt" stroke-linejoin="miter">
	<path stroke='black'  d='M386.4,347.6 L394.6,347.6 M616.8,347.6 L608.6,347.6  '/>	<g transform="translate(378.7,351.7)" stroke="none" fill="black" font-family="Verdana" font-size="11.00"  text-anchor="end">
		<text><tspan font-family="Verdana" > 90</tspan></text>
	</g>
</g>
<g fill="none" color="black" stroke="currentColor" stroke-width="1.00" stroke-linecap="butt" stroke-linejoin="miter">
	<path stroke='black'  d='M386.4,287.9 L394.6,287.9 M616.8,287.9 L608.6,287.9  '/>	<g transform="translate(378.7,292.0)" stroke="none" fill="black" font-family="Verdana" font-size="11.00"  text-anchor="end">
		<text><tspan font-family="Verdana" > 92</tspan></text>
	</g>
</g>
<g fill="none" color="black" stroke="currentColor" stroke-width="1.00" stroke-linecap="butt" stroke-linejoin="miter">
	<path stroke='black'  d='M386.4,228.3 L394.6,228.3 M616.8,228.3 L608.6,228.3  '/>	<g transform="translate(378.7,232.4)" stroke="none" fill="black" font-family="Verdana" font-size="11.00"  text-anchor="end">
		<text><tspan font-family="Verdana" > 94</tspan></text>
	</g>
</g>
<g fill="none" color="black" stroke="currentColor" stroke-width="1.00" stroke-linecap="butt" stroke-linejoin="miter">
	<path stroke='black'  d='M386.4,168.6 L394.6,168.6 M616.8,168.6 L608.6,168.6  '/>	<g transform="translate(378.7,172.7)" stroke="none" fill="black" font-family="Verdana" font-size="11.00"  text-anchor="end">
		<text><tspan font-family="Verdana" > 96</tspan></text>
	</g>
</g>
<g fill="none" color="black" stroke="currentColor" stroke-width="1.00" stroke-linecap="butt" stroke-linejoin="miter">
	<path stroke='black'  d='M386.4,109.0 L394.6,109.0 M616.8,109.0 L608.6,109.0  '/>	<g transform="translate(378.7,113.1)" stroke="none" fill="black" font-family="Verdana" font-size="11.00"  text-anchor="end">
		<text><tspan font-family="Verdana" > 98</tspan></text>
	</g>
</g>
<g fill="none" color="black" stroke="currentColor" stroke-width="1.00" stroke-linecap="butt" stroke-linejoin="miter">
	<path stroke='black'  d='M386.4,49.3 L394.6,49.3 M616.8,49.3 L608.6,49.3  '/>	<g transform="translate(378.7,53.4)" stroke="none" fill="black" font-family="Verdana" font-size="11.00"  text-anchor="end">
		<text><tspan font-family="Verdana" > 100</tspan></text>
	</g>
</g>
<g fill="none" color="black" stroke="currentColor" stroke-width="1.00" stroke-linecap="butt" stroke-linejoin="miter">
	<path stroke='black'  d='M386.4,347.6 L386.4,339.4 M386.4,49.3 L386.4,57.5  '/>	<g transform="translate(386.4,368.1)" stroke="none" fill="black" font-family="Verdana" font-size="11.00"  text-anchor="middle">
		<text><tspan font-family="Verdana" > 1</tspan></text>
	</g>
</g>
<g fill="none" color="black" stroke="currentColor" stroke-width="1.00" stroke-linecap="butt" stroke-linejoin="miter">
	<path stroke='black'  d='M432.5,347.6 L432.5,339.4 M432.5,49.3 L432.5,57.5  '/>	<g transform="translate(432.5,368.1)" stroke="none" fill="black" font-family="Verdana" font-size="11.00"  text-anchor="middle">
		<text><tspan font-family="Verdana" > 2</tspan></text>
	</g>
</g>
<g fill="none" color="black" stroke="currentColor" stroke-width="1.00" stroke-linecap="butt" stroke-linejoin="miter">
	<path stroke='black'  d='M524.6,347.6 L524.6,339.4 M524.6,49.3 L524.6,57.5  '/>	<g transform="translate(524.6,368.1)" stroke="none" fill="black" font-family="Verdana" font-size="11.00"  text-anchor="middle">
		<text><tspan font-family="Verdana" > 4</tspan></text>
	</g>
</g>
<g fill="none" color="black" stroke="currentColor" stroke-width="1.00" stroke-linecap="butt" stroke-linejoin="miter">
	<path stroke='black'  d='M616.8,347.6 L616.8,339.4 M616.8,49.3 L616.8,57.5  '/>	<g transform="translate(616.8,368.1)" stroke="none" fill="black" font-family="Verdana" font-size="11.00"  text-anchor="middle">
		<text><tspan font-family="Verdana" > 6</tspan></text>
	</g>
</g>
<g fill="none" color="black" stroke="currentColor" stroke-width="1.00" stroke-linecap="butt" stroke-linejoin="miter">
</g>
<g fill="none" color="black" stroke="currentColor" stroke-width="1.00" stroke-linecap="butt" stroke-linejoin="miter">
	<path stroke='black'  d='M386.4,49.3 L386.4,347.6 L616.8,347.6 L616.8,49.3 L386.4,49.3 Z  '/></g>
<g fill="none" color="black" stroke="currentColor" stroke-width="1.00" stroke-linecap="butt" stroke-linejoin="miter">
	<g transform="translate(336.1,198.5) rotate(270)" stroke="none" fill="black" font-family="Verdana" font-size="11.00"  text-anchor="middle">
		<text><tspan font-family="Verdana" >Efficiency [%]</tspan></text>
	</g>
</g>
<g fill="none" color="black" stroke="currentColor" stroke-width="1.00" stroke-linecap="butt" stroke-linejoin="miter">
	<g transform="translate(501.6,392.7)" stroke="none" fill="black" font-family="Verdana" font-size="11.00"  text-anchor="middle">
		<text><tspan font-family="Verdana" >Number of GPUs</tspan></text>
	</g>
</g>
<g fill="none" color="black" stroke="currentColor" stroke-width="1.00" stroke-linecap="butt" stroke-linejoin="miter">
	<g transform="translate(501.6,28.8)" stroke="none" fill="black" font-family="Verdana" font-size="11.00"  text-anchor="middle">
		<text><tspan font-family="Verdana" >Weak scaling (replicas/GPU=12)</tspan></text>
	</g>
</g>
	<g id="gnuplot_plot_1b" ><title>gnuplot_plot_1b</title>
<g fill="none" color="white" stroke="black" stroke-width="2.00" stroke-linecap="butt" stroke-linejoin="miter">
</g>
<g fill="none" color="black" stroke="currentColor" stroke-width="2.00" stroke-linecap="butt" stroke-linejoin="miter">
	<path stroke='rgb(  0,  96, 173)'  d='M386.4,49.3 L432.5,69.8 L524.6,83.5 L616.8,96.5  '/>	<use xlink:href='#gpPt6' transform='translate(386.4,49.3) scale(4.10)' color='rgb(  0,  96, 173)'/>
	<use xlink:href='#gpPt6' transform='translate(432.5,69.8) scale(4.10)' color='rgb(  0,  96, 173)'/>
	<use xlink:href='#gpPt6' transform='translate(524.6,83.5) scale(4.10)' color='rgb(  0,  96, 173)'/>
	<use xlink:href='#gpPt6' transform='translate(616.8,96.5) scale(4.10)' color='rgb(  0,  96, 173)'/>
</g>
	</g>
<g fill="none" color="black" stroke="currentColor" stroke-width="2.00" stroke-linecap="butt" stroke-linejoin="miter">
</g>
<g fill="none" color="black" stroke="black" stroke-width="1.00" stroke-linecap="butt" stroke-linejoin="miter">
</g>
<g fill="none" color="black" stroke="currentColor" stroke-width="1.00" stroke-linecap="butt" stroke-linejoin="miter">
	<path stroke='black'  d='M386.4,49.3 L386.4,347.6 L616.8,347.6 L616.8,49.3 L386.4,49.3 Z  '/></g>
<g fill="none" color="black" stroke="currentColor" stroke-width="1.00" stroke-linecap="butt" stroke-linejoin="miter">
</g>
</g>
</svg>

